%YAML 1.1
%TAG !u! tag:unity3d.com,2011:
--- !u!114 &11400000
MonoBehaviour:
  m_ObjectHideFlags: 0
  m_CorrespondingSourceObject: {fileID: 0}
  m_PrefabInstance: {fileID: 0}
  m_PrefabAsset: {fileID: 0}
  m_GameObject: {fileID: 0}
  m_Enabled: 1
  m_EditorHideFlags: 0
  m_Script: {fileID: 11500000, guid: 3098a09950dbbaf42ba8ae9396ea42c3, type: 3}
  m_Name: Wave 8
  m_EditorClassIdentifier: 
  enemyPrefabs:
  - {fileID: 6238739656643389638, guid: 16a3669926a47c84ca5f6b150c8259fb, type: 3}
  - {fileID: 6238739656643389638, guid: 16a3669926a47c84ca5f6b150c8259fb, type: 3}
  - {fileID: 6238739656643389638, guid: 16a3669926a47c84ca5f6b150c8259fb, type: 3}
  pathPrefab: {fileID: 5740064878320443853, guid: d09ff24a90983c241a09f54e45dbef20, type: 3}
  moveSpeed: 5
  timeBetweenEnemySpawns: 1
  spawnTimeVariance: 0
  minimumSpawnTime: 0.2
